#<SYMDEFS># ARM Linker, 5.01 [Build 43]: Last Updated: Thu Jun 22 00:50:12 2017
0x00000000 N __ARM_use_no_argv
0x00000000 A __main
0x00000008 A __scatterload
0x00000008 A __scatterload_rt2
0x0000001c A __scatterload_null
0x00000044 A __decompress
0x00000044 A __decompress2
0x000000a4 A __scatterload_copy
0x000000cc A __scatterload_zeroinit
0x000000f9 T __rt_lib_init
0x000000fb T __rt_lib_init_alloca_1
0x000000fb T __rt_lib_init_argv_1
0x000000fb T __rt_lib_init_atexit_1
0x000000fb T __rt_lib_init_clock_1
0x000000fb T __rt_lib_init_cpp_1
0x000000fb T __rt_lib_init_exceptions_1
0x000000fb T __rt_lib_init_fp_1
0x000000fb T __rt_lib_init_fp_trap_1
0x000000fb T __rt_lib_init_getenv_1
0x000000fb T __rt_lib_init_heap_1
0x000000fb T __rt_lib_init_lc_collate_1
0x000000fb T __rt_lib_init_lc_ctype_1
0x000000fb T __rt_lib_init_lc_monetary_1
0x000000fb T __rt_lib_init_lc_numeric_1
0x000000fb T __rt_lib_init_lc_time_1
0x000000fb T __rt_lib_init_rand_1
0x000000fb T __rt_lib_init_return
0x000000fb T __rt_lib_init_signal_1
0x000000fb T __rt_lib_init_stdio_1
0x000000fb T __rt_lib_init_user_alloc_1
0x000000fd T __rt_lib_shutdown
0x000000ff T __rt_lib_shutdown_fp_trap_1
0x000000ff T __rt_lib_shutdown_heap_1
0x000000ff T __rt_lib_shutdown_return
0x000000ff T __rt_lib_shutdown_signal_1
0x000000ff T __rt_lib_shutdown_stdio_1
0x000000ff T __rt_lib_shutdown_user_alloc_1
0x00000100 A __rt_entry
0x00000100 A __rt_entry_presh_1
0x00000100 A __rt_entry_sh
0x00000108 A __rt_entry_li
0x00000108 A __rt_entry_postsh_1
0x0000010c A __rt_entry_main
0x0000010c A __rt_entry_postli_1
0x00000134 A __rt_exit
0x00000138 A __rt_exit_ls
0x00000138 A __rt_exit_prels_1
0x0000013c A __rt_exit_exit
0x00000145 T main
0x00000149 T __user_initial_stackheap
0x0000014c A __user_setup_stackheap
0x000001ad T exit
0x000001b8 A __user_libspace
0x000001b8 A __user_perproc_libspace
0x000001b8 A __user_perthread_libspace
0x000001c5 T _sys_exit
0x000001d0 A __I$use$semihosting
0x000001d0 A __use_no_semihosting_swi
0x000001d4 D __libspace_start
0x000001d4 A __semihosting_library_function
0x00000234 D __temporary_stack_top$libspace
0x8d60d000 D DALPROP_PropsInfo
0x8d60d010 D DALPROP_StructPtrs
0x8d60d0b8 D DALPROP_PropBin
0x8d60e360 D driver_list
0x8d60f310 D cfg_bus_list
0x8d60f31c D cfg_slave_list
0x8d60f394 D cfg_master_list
0x8d60f3ec D ul_cfg_clock_node_list
0x8d60f3fc D cfg_tcsr_info
0x8d611d40 D route_tree_root
0x8d611d44 D ul_arb_master_list
0x8d611d9c D ul_arb_slave_list
0x8d611e14 D ul_arb_clock_node_list
0x8d611e20 D tfunnel_port_stm
0x8d611e2c D devcfgSpmBspData
0x8d611e84 D devcfgSpmCmdSeqArray
0x8d611ed8 D gSpmCmdDelay
0x8d611edc D interrupt_config_map
0x8d6125c8 D pInterruptControllerConfigData
0x8d612efc D HWIOBaseMap
0x8d613050 D pm_wcn_proc_client_dev_deps_pll_sr2
0x8d613068 D pm_wcn_proc_client_dev_deps_rail_cx
0x8d613080 D pm_wcn_proc_client_dev_deps_rail_mx
0x8d613098 D pm_wcn_proc_client_dev_deps_wcn_core
0x8d6130c8 D pm_wcn_proc_client_dev_deps_wcn_core_clk
0x8d613110 D pm_wcn_proc_client_dev_deps_wcn_core_clk_2
0x8d613140 D pm_wcn_proc_client_dev_deps_wcn_pa
0x8d613158 D pm_npa_wcn_pam_node_rsrcs
0x8d613254 D num_of_pm_wcn_nodes
0x8d613258 D pmic_npa_clk_remote_resources
0x8d613260 D pmic_npa_remote_clk
0x8d613268 D pmic_npa_ldo_remote_resources
0x8d613288 D pmic_npa_remote_ldo
0x8d613290 D pmic_npa_smps_remote_resources
0x8d613298 D pmic_npa_remote_smps
0x8d6132a0 D GPIOCommonConfig_V6_VariantCommon
0x8d6132a4 D GPIORegConfig_V6_VariantCommon
0x8d6132b4 D pm_pam_pll_sr2_a_ldo7
0x8d6133d4 D pm_pam_pll_sr2_rails_info
0x8d6133dc D pm_pam_rail_cx_a_smps2
0x8d613a30 D pm_pam_rail_cx_rails_info
0x8d613a38 D pm_pam_rail_mx_a_ldo3
0x8d613f48 D pm_pam_rail_mx_rails_info
0x8d613f50 D pm_pam_wcn_core_a_ldo7
0x8d6142b0 D pm_pam_wcn_core_a_ldo19
0x8d614610 D pm_pam_wcn_core_rails_info
0x8d614620 D pm_pam_wcn_core_clk_a_clk_buff5
0x8d6146b0 D pm_pam_wcn_core_clk_a_ldo7
0x8d614a10 D pm_pam_wcn_core_clk_a_ldo19
0x8d614d70 D pm_pam_wcn_core_clk_rails_info
0x8d614d88 D pm_pam_wcn_core_clk_2_a_clk_buff5
0x8d614e18 D pm_pam_wcn_core_clk_2_a_ldo19
0x8d615178 D pm_pam_wcn_core_clk_2_rails_info
0x8d615188 D pm_pam_wcn_pa_a_ldo9
0x8d6154e8 D pm_pam_wcn_pa_rails_info
0x8d6154f0 D u32cfg_bus_list_size
0x8d6154f4 D u32cfg_slave_list_size
0x8d6154f8 D u32cfg_master_list_size
0x8d6154fc D u32ul_cfg_clk_node_list_size
0x8d615500 D u32ul_arb_master_list_size
0x8d615504 D u32ul_arb_slave_list_size
0x8d615508 D u32ul_arb_clk_node_list_size
0x8d61550c D hwevent_config_table
0x8d615514 D table_size_array
0x8d615518 D hwevent_addr_table
0x8d615528 D addr_range_table_size
0x8d61552c D SourceConfig
0x8d615644 D QUPI2CClockConfig
0x8d6156bc D UARTClockConfig
0x8d615964 D WCNClockConfig
0x8d615acc D WCNFMClockConfig
0x8d615b1c D WCNBT32MHZClockConfig
0x8d615b6c D ClockLogDefaultConfig
0x8d615b74 D ClockFlagInitConfig
0x8d615ba4 D ClcokVRegLevelsMap
